{
  "resource": "User Profile",
  "http_method": "PUT",
  "route": "/api/users/profile",
  "description": "Update",
  "explanation": null,
  "parameters": [
    {
      "scope": "profile",
      "name": "first_name",
      "description": "First name"
    },
    {
      "scope": "profile",
      "name": "last_name",
      "description": "Last name"
    },
    {
      "scope": "profile",
      "name": "appointment",
      "description": "Appointment"
    }
  ],
  "response_fields": [

  ],
  "requests": [
    {
      "request_method": "PUT",
      "request_path": "/api/users/profile",
      "request_body": "{\"profile\":{\"first_name\":\"Olin\",\"last_name\":\"Huels\",\"appointment\":\"Global Quality Specialist\"}}",
      "request_headers": {
        "Content-Type": "application/json"
      },
      "request_query_parameters": {

      },
      "request_content_type": "application/json",
      "response_status": 200,
      "response_status_text": "OK",
      "response_body": "{\"profile\":{\"email\":\"susan_hegmann@example.com\",\"first_name\":\"Olin\",\"last_name\":\"Huels\",\"appointment\":\"Global Quality Specialist\",\"display_as\":\"Olin Huels\"}}",
      "response_headers": {
        "Content-Type": "application/json; charset=utf-8",
        "ETag": "\"fbc89c35570b2414758440e648497fdd\"",
        "Cache-Control": "max-age=0, private, must-revalidate"
      },
      "response_content_type": "application/json; charset=utf-8",
      "curl": null
    }
  ]
}