{
  "resource": "Oauth2 Support",
  "http_method": "GET",
  "route": "/api/oauth2/connect",
  "description": "Unknown provider",
  "explanation": null,
  "parameters": [
    {
      "required": true,
      "name": "consume_by",
      "description": "Consumer application identity"
    },
    {
      "name": "state",
      "description": "Roundtrip state"
    }
  ],
  "response_fields": [

  ],
  "requests": [
    {
      "request_method": "GET",
      "request_path": "/api/oauth2/connect?state=%2Fpath%2Fto_back_redirect&consume_by=unknown",
      "request_body": null,
      "request_headers": {
        "Content-Type": "application/json"
      },
      "request_query_parameters": {
        "state": "/path/to_back_redirect",
        "consume_by": "unknown"
      },
      "request_content_type": "application/json",
      "response_status": 422,
      "response_status_text": "Unprocessable Entity",
      "response_body": "{\"message\":\"Unknown OAuth2 consumer: unknown.\"}",
      "response_headers": {
        "Content-Type": "application/json; charset=utf-8",
        "Cache-Control": "no-cache"
      },
      "response_content_type": "application/json; charset=utf-8",
      "curl": null
    }
  ]
}