{
  "resource": "User Sessions",
  "http_method": "GET",
  "route": "/api/users/current",
  "description": "Get current for authenticated user",
  "explanation": null,
  "parameters": [

  ],
  "response_fields": [

  ],
  "requests": [
    {
      "request_method": "GET",
      "request_path": "/api/users/current",
      "request_body": null,
      "request_headers": {
        "Content-Type": "application/json"
      },
      "request_query_parameters": {

      },
      "request_content_type": "application/json",
      "response_status": 200,
      "response_status_text": "OK",
      "response_body": "{\"success\":true,\"info\":\"Current user\",\"user\":{\"id\":341,\"email\":\"morgan.miller@example.org\",\"role\":\"customer\"}}",
      "response_headers": {
        "Content-Type": "application/json; charset=utf-8",
        "ETag": "\"36f0235a226cf6fe11e25cc3fefe032c\"",
        "Cache-Control": "max-age=0, private, must-revalidate"
      },
      "response_content_type": "application/json; charset=utf-8",
      "curl": null
    }
  ]
}