{
  "resource": "User Sessions",
  "http_method": "POST",
  "route": "/api/users/sign_in",
  "description": "Logging In twice",
  "explanation": null,
  "parameters": [
    {
      "required": true,
      "scope": "api_user",
      "name": "email",
      "description": "Email"
    },
    {
      "required": true,
      "scope": "api_user",
      "name": "password",
      "description": "Password"
    },
    {
      "required": false,
      "scope": "api_user",
      "name": "remember",
      "description": "Remember me flag"
    }
  ],
  "response_fields": [

  ],
  "requests": [
    {
      "request_method": "POST",
      "request_path": "/api/users/sign_in",
      "request_body": "{\"api_user\":{\"email\":\"adaline.kuhlman@example.org\",\"password\":\"6r2325xhx\",\"remember\":false}}",
      "request_headers": {
        "Content-Type": "application/json"
      },
      "request_query_parameters": {

      },
      "request_content_type": "application/json",
      "response_status": 422,
      "response_status_text": "Unprocessable Entity",
      "response_body": "{\"success\":false,\"error\":\"You are already signed in.\"}",
      "response_headers": {
        "Content-Type": "application/json; charset=utf-8",
        "Cache-Control": "no-cache"
      },
      "response_content_type": "application/json; charset=utf-8",
      "curl": null
    }
  ]
}