{
  "resource": "User Registrations",
  "http_method": "PUT",
  "route": "/api/users",
  "description": "Change email",
  "explanation": null,
  "parameters": [
    {
      "required": true,
      "scope": "api_user",
      "name": "email",
      "description": "Email"
    },
    {
      "required": true,
      "scope": "api_user",
      "name": "password",
      "description": "Password"
    },
    {
      "required": true,
      "scope": "api_user",
      "name": "password_confirmation",
      "description": "Password confirmation"
    }
  ],
  "response_fields": [

  ],
  "requests": [
    {
      "request_method": "PUT",
      "request_path": "/api/users",
      "request_body": "{\"api_user\":{\"email\":\"eleazar@example.net\",\"current_password\":\"7wz1cugaq\"}}",
      "request_headers": {
        "Content-Type": "application/json"
      },
      "request_query_parameters": {

      },
      "request_content_type": "application/json",
      "response_status": 200,
      "response_status_text": "OK",
      "response_body": "{\"success\":true,\"info\":\"You updated your account successfully, but we need to verify your new email address. Please check your email and follow the confirm link to confirm your new email address.\",\"user\":{\"id\":321,\"email\":\"gerry@example.org\",\"role\":\"customer\"}}",
      "response_headers": {
        "Content-Type": "application/json; charset=utf-8",
        "ETag": "\"4a93a4b3eb461cc3467b44ccb4d8ee4e\"",
        "Cache-Control": "max-age=0, private, must-revalidate"
      },
      "response_content_type": "application/json; charset=utf-8",
      "curl": null
    }
  ]
}