{
  "resource": "User Passwords",
  "http_method": "PUT",
  "route": "/api/users/password",
  "description": "Empty password",
  "explanation": null,
  "parameters": [
    {
      "required": true,
      "scope": "api_user",
      "name": "reset_password_token",
      "description": "Reset token from email"
    },
    {
      "required": true,
      "scope": "api_user",
      "name": "password",
      "description": "New password"
    },
    {
      "required": true,
      "scope": "api_user",
      "name": "password_confirmation",
      "description": "New password confirmation"
    }
  ],
  "response_fields": [

  ],
  "requests": [
    {
      "request_method": "PUT",
      "request_path": "/api/users/password",
      "request_body": "{\"api_user\":{\"reset_password_token\":\"mPYtfcyesCvQXxjw_3oa\"}}",
      "request_headers": {
        "Content-Type": "application/json"
      },
      "request_query_parameters": {

      },
      "request_content_type": "application/json",
      "response_status": 422,
      "response_status_text": "Unprocessable Entity",
      "response_body": "{\"success\":false,\"error\":\"Password can't be blank.\"}",
      "response_headers": {
        "Content-Type": "application/json; charset=utf-8",
        "Cache-Control": "no-cache"
      },
      "response_content_type": "application/json; charset=utf-8",
      "curl": null
    }
  ]
}