{
  "resource": "User Passwords",
  "http_method": "POST",
  "route": "/api/users/password",
  "description": "Invalid email",
  "explanation": null,
  "parameters": [
    {
      "required": true,
      "scope": "api_user",
      "name": "email",
      "description": "Email"
    }
  ],
  "response_fields": [

  ],
  "requests": [
    {
      "request_method": "POST",
      "request_path": "/api/users/password",
      "request_body": "{\"api_user\":{\"email\":\"gracie.dare@example.org\"}}",
      "request_headers": {
        "Content-Type": "application/json"
      },
      "request_query_parameters": {

      },
      "request_content_type": "application/json",
      "response_status": 422,
      "response_status_text": "Unprocessable Entity",
      "response_body": "{\"success\":false,\"error\":\"Email not found.\"}",
      "response_headers": {
        "Content-Type": "application/json; charset=utf-8",
        "Cache-Control": "no-cache"
      },
      "response_content_type": "application/json; charset=utf-8",
      "curl": null
    }
  ]
}